<?xml version="1.0" encoding="UTF-8" standalone="no"?>
<svg
   xmlns:dc="http://purl.org/dc/elements/1.1/"
   xmlns:cc="http://creativecommons.org/ns#"
   xmlns:rdf="http://www.w3.org/1999/02/22-rdf-syntax-ns#"
   xmlns:svg="http://www.w3.org/2000/svg"
   xmlns="http://www.w3.org/2000/svg"
   xmlns:xlink="http://www.w3.org/1999/xlink"
   xmlns:sodipodi="http://sodipodi.sourceforge.net/DTD/sodipodi-0.dtd"
   xmlns:inkscape="http://www.inkscape.org/namespaces/inkscape"
   width="182.44215"
   height="26.189276"
   version="1.1"
   id="svg55"
   sodipodi:docname="NES Case Front Logo.svg"
   inkscape:version="0.92.1 r15371">
  <metadata
     id="metadata61">
    <rdf:RDF>
      <cc:Work
         rdf:about="">
        <dc:format>image/svg+xml</dc:format>
        <dc:type
           rdf:resource="http://purl.org/dc/dcmitype/StillImage" />
      </cc:Work>
    </rdf:RDF>
  </metadata>
  <defs
     id="defs59" />
  <sodipodi:namedview
     pagecolor="#ffffff"
     bordercolor="#666666"
     borderopacity="1"
     objecttolerance="10"
     gridtolerance="10"
     guidetolerance="10"
     inkscape:pageopacity="0"
     inkscape:pageshadow="2"
     inkscape:window-width="1567"
     inkscape:window-height="822"
     id="namedview57"
     showgrid="false"
     inkscape:zoom="3.0739503"
     inkscape:cx="87.149125"
     inkscape:cy="-8.7809128"
     inkscape:window-x="213"
     inkscape:window-y="91"
     inkscape:window-maximized="0"
     inkscape:current-layer="g4582" />
  <g
     id="g4594"
     transform="translate(-25.1,-10)">
    <path
       id="path4"
       d="M 39.3,23.3 V 10 h -4 v 9.3 L 29.4,10 h -4.3 v 13.3 h 4 v -9.6 l 6.2,9.6 z"
       inkscape:connector-curvature="0"
       style="fill:#ff0000" />
    <path
       id="path6"
       d="m 45.8,23.3 v -9 h -4 v 9 z"
       inkscape:connector-curvature="0"
       style="fill:#ff0000" />
    <path
       id="path8"
       d="M 45.8,12.4 V 10 h -4 v 2.4 z"
       inkscape:connector-curvature="0"
       style="fill:#ff0000" />
    <path
       id="3162"
       d="M 59.8,23.3 V 17.1 C 59.8,15.8 57.3,14 56,14 h -1.2 c -0.9,0 -1.9,0.8 -2.8,1.2 v -0.9 h -4 v 9 h 4 v -6.2 c 0,-0.6 1.4,-1.3 2,-1.3 0.6,0 1.7,0.7 1.7,1.3 v 6.2 z"
       inkscape:connector-curvature="0"
       style="fill:#ff0000" />
    <use
       id="use11"
       href="#3162"
       xlink:href="#3162"
       height="187"
       width="467"
       transform="translate(33.46704,0.30988)"
       style="fill:#ff0000"
       x="0"
       y="0" />
    <path
       id="path13"
       d="m 66.3,23.3 v -9 h 2.1 v -1.2 h -2.1 v -1.9 h -4.1 v 1.9 h -2.1 v 1.2 h 2.1 v 9 z"
       inkscape:connector-curvature="0"
       style="fill:#ff0000" />
    <path
       id="path15"
       style="fill:#ff0000;stroke:none;stroke-width:11"
       d="m 74,14 c -3.2,0 -5.9,2.2 -5.9,4.9 0,2.8 2.7,5 5.9,5 2.8,0 5.1,-1.6 5.7,-3.7 h -4.1 v 1.2 c 0,1 -0.7,1.3 -1.6,1.3 -0.9,0 -1.5,-0.3 -1.5,-1.3 v -2.5 h 7.4 C 79.9,16.2 77.3,14 74,14 Z m 0,0.9 c 0.9,0 1.6,0.6 1.6,1.6 v 0.9 h -3.1 v -0.9 c 0,-1 0.6,-1.6 1.5,-1.6 z"
       inkscape:connector-curvature="0" />
    <path
       id="path17"
       style="fill:#ff0000;stroke:none;stroke-width:11"
       d="m 113.4,14 c -3.3,0 -5.9,2.2 -5.9,4.9 0,2.8 2.6,5 5.9,5 3.2,0 5.9,-2.2 5.9,-5 0,-2.7 -2.7,-4.9 -5.9,-4.9 z m 0,0.9 c 0.9,0 1.5,0.6 1.5,1.6 v 4.9 c 0,1 -0.6,1.3 -1.5,1.3 -1,0 -1.6,-0.3 -1.6,-1.3 v -4.9 c 0,-1 0.6,-1.6 1.6,-1.6 z"
       inkscape:connector-curvature="0" />
    <path
       id="path19"
       d="m 101.9,10 v 4.9 c 0,0 -1.2,-0.9 -2.8,-0.9 -2.5,0 -4.6,2.2 -4.6,4.6 0,2.5 2.1,5 4.6,5 1.6,0 2.8,-0.6 2.8,-0.6 v 0.3 h 4 V 10 Z m -1.5,5.5 c 0.9,0 1.5,0.7 1.5,1.6 v 3.7 c 0,0.9 -0.6,1.2 -1.5,1.2 -1,0 -1.6,-0.3 -1.6,-1.2 v -3.7 c 0,-0.9 0.6,-1.6 1.6,-1.6 z"
       inkscape:connector-curvature="0"
       style="fill:#ff0000" />
  </g>
  <g
     id="g4582"
     transform="matrix(0.85,0,0,0.85,-2.04,-10.190724)"
     style="fill:#ff0000;fill-opacity:1">
    <g
       id="g4551"
       style="fill:#ff0000;fill-opacity:1">
      <path
         d="M 23.6,42.8 V 37 c 0,-1.1 -1.1,-2.2 -2.2,-2.2 H 13 v 8 h 2.6 v -5.4 c 0,-0.4 0.3,-0.8 0.7,-0.8 h 4 c 0.4,0 0.8,0.4 0.8,0.8 v 5.4 z"
         id="2399"
         inkscape:connector-curvature="0"
         style="fill:#ff0000;fill-opacity:1" />
      <use
         transform="translate(69.392541)"
         id="use3171"
         width="467"
         height="187"
         xlink:href="#2399"
         href="#2399"
         x="0"
         y="0"
         style="fill:#ff0000;fill-opacity:1" />
      <use
         transform="translate(37.983286)"
         width="467"
         height="187"
         xlink:href="#use3171"
         href="#use3171"
         id="use25"
         x="0"
         y="0"
         style="fill:#ff0000;fill-opacity:1" />
      <path
         d="M 108.3,42.8 V 37 c 0,-1.1 -1.1,-2.2 -2.2,-2.2 H 94.8 v 8 h 2.6 v -5.4 c 0,-0.4 0.3,-0.8 0.7,-0.8 h 1.5 c 0.3,0 0.7,0.4 0.7,0.8 v 5.4 h 2.6 v -5.4 c 0,-0.4 0.3,-0.8 0.7,-0.8 h 1.5 c 0.3,0 0.7,0.4 0.7,0.8 v 5.4 z"
         id="3177"
         inkscape:connector-curvature="0"
         style="fill:#ff0000;fill-opacity:1" />
      <path
         d="M 11.2,42.8 H 4.6 C 3.5,42.8 2.4,42.1 2.4,41 v -6.3 h 8.8 v 1.9 H 5.3 C 5,36.6 4.6,36.9 4.6,37.3 4.6,37.7 5,38 5.3,38 h 5.5 v 1.6 H 5.3 c -0.3,0 -0.7,0.4 -0.7,0.7 0,0.4 0.4,0.8 0.7,0.8 h 5.9 z"
         id="3181"
         inkscape:connector-curvature="0"
         style="fill:#ff0000;fill-opacity:1" />
      <use
         transform="translate(32.504927)"
         width="467"
         height="187"
         xlink:href="#3181"
         href="#3181"
         id="use29"
         x="0"
         y="0"
         style="fill:#ff0000;fill-opacity:1" />
      <use
         transform="translate(107.74105)"
         width="467"
         height="187"
         xlink:href="#3181"
         href="#3181"
         id="use31"
         x="0"
         y="0"
         style="fill:#ff0000;fill-opacity:1" />
      <path
         d="m 24.7,34.8 v 1.8 h 2.6 c 0.7,0 0.7,0 0.7,0.8 v 5.4 h 2.5 v -5.4 c 0,-0.8 0,-0.8 0.8,-0.8 h 2.5 v -1.8 z"
         id="2391"
         inkscape:connector-curvature="0"
         style="fill:#ff0000;fill-opacity:1" />
      <use
         transform="translate(31.774479)"
         width="467"
         height="187"
         xlink:href="#2391"
         href="#2391"
         id="use34"
         x="0"
         y="0"
         style="fill:#ff0000;fill-opacity:1" />
      <use
         transform="translate(107.74105)"
         width="467"
         height="187"
         xlink:href="#2391"
         href="#2391"
         id="use36"
         x="0"
         y="0"
         style="fill:#ff0000;fill-opacity:1" />
      <path
         d="m 45.5,34.8 v 8 h 2.6 v -1.4 c 0,-0.4 0.3,-0.8 0.7,-0.8 h 3.3 c 0.4,0 0.7,0.4 0.7,0.8 v 1.4 H 55 v -2.2 c 0,-0.3 -0.3,-0.7 -0.3,-1.1 0,-0.3 0.7,-1 0.7,-1.8 V 37 c 0,-0.7 -1.1,-2.2 -1.8,-2.2 z m 3.3,1.8 h 3.3 c 0.4,0 0.7,0.4 0.7,0.8 v 0.7 c 0,0.4 -0.3,0.7 -0.7,0.7 h -3.3 c -0.4,0 -0.7,-0.3 -0.7,-0.7 v -0.7 c 0,-0.4 0.3,-0.8 0.7,-0.8 z"
         id="path38"
         inkscape:connector-curvature="0"
         style="fill:#ff0000;fill-opacity:1" />
      <path
         d="m 68.5,34.8 c -0.7,0 -1.8,1.5 -1.8,2.2 v 5.8 h 2.6 V 40.6 H 74 v 2.2 h 2.6 V 37 c 0,-0.7 -1.1,-2.2 -1.9,-2.2 z m 1.5,1.8 h 3.3 c 0.3,0 0.7,0.4 0.7,0.8 v 1.4 h -4.7 v -1.4 c 0,-0.4 0.3,-0.8 0.7,-0.8 z"
         id="path40"
         inkscape:connector-curvature="0"
         style="fill:#ff0000;fill-opacity:1" />
      <path
         d="m 80.9,42.8 v -8 h -2.5 v 8 z"
         id="path42"
         inkscape:connector-curvature="0"
         style="fill:#ff0000;fill-opacity:1" />
    </g>
    <g
       transform="translate(112.02484,-11)"
       id="g4559"
       style="fill:#ff0000;fill-opacity:1">
      <use
         y="0"
         x="0"
         transform="translate(-3.2870161,10.957013)"
         width="467"
         height="187"
         xlink:href="#3177"
         href="#3177"
         id="use44"
         style="fill:#ff0000;fill-opacity:1" />
      <use
         y="0"
         x="0"
         transform="translate(78.523138,10.957013)"
         width="467"
         height="187"
         xlink:href="#3181"
         href="#3181"
         id="use46"
         style="fill:#ff0000;fill-opacity:1" />
      <use
         y="0"
         x="0"
         transform="translate(46.01821,10.957013)"
         width="467"
         height="187"
         xlink:href="#2391"
         href="#2391"
         id="use48"
         style="fill:#ff0000;fill-opacity:1" />
      <path
         inkscape:connector-curvature="0"
         d="m 41.1,45.8 c -0.7,0 -2.2,1.1 -2.2,1.8 v 1.1 c 0,0.7 1.5,1.8 2.2,1.8 h 4.4 c 0.4,0 0.8,0.4 0.8,0.7 0,0.4 -0.4,0.8 -0.8,0.8 h -6.6 v 1.8 h 7.4 c 0.7,0 2.1,-1.1 2.1,-1.8 V 50.9 C 48.4,50.1 47,49 46.3,49 h -4.4 c -0.4,0 -0.8,-0.3 -0.8,-0.7 0,-0.4 0.4,-0.7 0.8,-0.7 h 6.5 v -1.8 z"
         id="3187"
         style="fill:#ff0000;fill-opacity:1" />
      <use
         y="0"
         x="0"
         transform="translate(21.182986)"
         width="467"
         height="187"
         xlink:href="#3187"
         href="#3187"
         id="use51"
         style="fill:#ff0000;fill-opacity:1" />
      <path
         inkscape:connector-curvature="0"
         d="m 49.2,45.8 v 3.6 c 0,0.7 1.1,1.8 1.8,1.8 h 1.8 v 2.6 h 2.6 v -2.6 h 1.8 c 0.7,0 1.8,-1.1 1.8,-1.8 v -3.6 h -2.5 v 2.9 c 0,0.3 -0.4,0.7 -0.8,0.7 h -3.2 c -0.4,0 -0.8,-0.4 -0.8,-0.7 v -2.9 z"
         id="path53"
         style="fill:#ff0000;fill-opacity:1" />
    </g>
  </g>
</svg>
